<svg width="48" height="48" viewBox="0 0 48 48" fill="none" xmlns="http://www.w3.org/2000/svg">
<path d="M34 8H14V16H34V8Z" fill="#E0E8FE"/>
<path fill-rule="evenodd" clip-rule="evenodd" d="M34 4C36.2091 4 38 5.79086 38 8V40C38 42.2091 36.2091 44 34 44H14C11.7909 44 10 42.2091 10 40V8C10 5.79086 11.7909 4 14 4H34ZM32 36C30.8954 36 30 36.8954 30 38C30 39.1046 30.8954 40 32 40C33.1046 40 34 39.1046 34 38C34 36.8954 33.1046 36 32 36ZM24 36H16C14.8954 36 14 36.8954 14 38C14 39.1046 14.8954 40 16 40H24C25.1046 40 26 39.1046 26 38C26 36.8954 25.1046 36 24 36ZM16 28C14.8954 28 14 28.8954 14 30C14 31.1046 14.8954 32 16 32C17.1046 32 18 31.1046 18 30C18 28.8954 17.1046 28 16 28ZM24 28C22.8954 28 22 28.8954 22 30C22 31.1046 22.8954 32 24 32C25.1046 32 26 31.1046 26 30C26 28.8954 25.1046 28 24 28ZM32 28C30.8954 28 30 28.8954 30 30C30 31.1046 30.8954 32 32 32C33.1046 32 34 31.1046 34 30C34 28.8954 33.1046 28 32 28ZM16 20C14.8954 20 14 20.8954 14 22C14 23.1046 14.8954 24 16 24C17.1046 24 18 23.1046 18 22C18 20.8954 17.1046 20 16 20ZM24 20C22.8954 20 22 20.8954 22 22C22 23.1046 22.8954 24 24 24C25.1046 24 26 23.1046 26 22C26 20.8954 25.1046 20 24 20ZM32 20C30.8954 20 30 20.8954 30 22C30 23.1046 30.8954 24 32 24C33.1046 24 34 23.1046 34 22C34 20.8954 33.1046 20 32 20ZM34 8H14V16H34V8Z" fill="#253B86"/>
<rect x="14" y="36" width="12" height="4" rx="2" fill="#FE5728"/>
</svg>
